{
  "variables": {
    "version": "",
    "distribution":"ubuntu",
    "distribution_major_version": "",
    "distribution_mior_release": "",
    "ansible_user": "vagrant",
    "my_secret": "{{env `MY_SECRET`}}",
    "vagrant_role":"elk"
     },
    "provisioners":
    [
      {
        "type": "shell",
        "execute_command": "echo 'vagrant' | {{.Vars}} sudo -S -E bash '{{.Path}}'",
        "script": "./scripts/yum/ansible.sh"
      },
      {
        "type": "ansible-local",
        "playbook_file": "ansible/main.yml",
        "galaxy_file": "requirements.yml",
        "group_vars": "./ansible/group_vars",
        "inventory_file": "inventory"
      },
      {
        "type": "shell",
        "execute_command": "echo 'vagrant' | {{.Vars}} sudo -S -E bash '{{.Path}}'",
        "script": "./scripts/yum/cleanup.sh"
      }
    ],
  "builders":
  [
      {
          "type": "virtualbox-iso",
          "boot_command": [
            "<tab> text ks=http://{{ .HTTPIP }}:{{ .HTTPPort }}/ks-centos-7.cfg<enter><wait>"
          ],
          "boot_wait": "10s",
          "disk_size": 81920,
          "guest_os_type": "RedHat_64",
          "headless": true,
          "http_directory": "http",
          "iso_urls": [
            "CentOS-7-x86_64-Minimal-1908.iso",
            "http://mirrors.mit.edu/centos/7/isos/x86_64/CentOS-7-x86_64-Minimal-1908.iso"
          ],
          "iso_checksum_type": "sha256",
          "iso_checksum": "9a2c47d97b9975452f7d582264e9fc16d108ed8252ac6816239a3b58cef5c53d",
          "ssh_username": "vagrant",
          "ssh_password": "vagrant",
          "ssh_port": 22,
          "ssh_wait_timeout": "1000s",
          "shutdown_command": "echo 'vagrant'|sudo -S /sbin/halt -h -p",
          "guest_additions_path": "VBoxGuestAdditions_{{ .Version }}.iso",
          "virtualbox_version_file": "{{ .vbox_version }}",
          "vm_name": "rolling-release",
          "vboxmanage": [
            [
              "modifyvm",
              "{{.Name}}",
              "--memory",
              "2048"
            ],
            [
              "modifyvm",
              "{{.Name}}",
              "--cpus",
              "2"
            ]
          ]
        }
      ],
      "post-processors":
      [
        {
          "compression_level": "5",
          "type": "vagrant",
          "output": "./builds/ansible-zero-downtime.box"
        },
        {
          "type": "checksum",
          "checksum_types": ["md5", "sha256", "sha512"],
          "output": "./builds/packer_{{.BuildName}}_{{.BuilderType}}.{{.ChecksumType}}"
        }
      ]
}